…
~~~r
framed_fruit <- tibble(fruit_name = fruit)
framed_fruit
~~~
  
We can then add a new column to the data frame, which is the result of using 'str_detect' to find our repeated letter pattern:  
  
~~~r
framed_fruit %>% 
  mutate(has_double = str_detect(fruit_name, '(\\w)\\1'))
~~~
  
~~~output
# A tibble: 80 × 2
   fruit_name   has_double
   <chr>        <lgl>     
 1 apple        TRUE      
 2 apricot      FALSE     
 3 avocado      FALSE     
 4 banana       FALSE     
 5 bell pepper  TRUE      
 6 bilberry     TRUE      
 7 blackberry   TRUE      
 8 blackcurrant TRUE      
 9 blood orange TRUE      
10 blueberry    TRUE      
# ... 70 more rows
~~~
  
Another approach is to use the 'filter' function to reduce the data frame to only matching rows:  
  
~~~r
framed_fruit %>% 
  filter( str_detect(fruit_name, '(\\w)\\1') )
~~~
  
~~~output
# A tibble: 29 × 1
   fruit_name  
   <chr>       
 1 apple       
 2 bell pepper 
 3 bilberry    
 4 blackberry  
 5 blackcurrant
 6 blood orange
 7 blueberry   
 8 boysenberry 
 9 cherry      
10 chili pepper
# ... 19 more rows
…
~~~output
[1] "apapaple"  "banana"    "carararot"
~~~
  
And again, these functions may be combined with data frame use too.  For example:  
  
~~~r
framed_fruit %>% 
  mutate( long_vowels = str_replace_all(fruit_name, '([aeiou])', '\\1\\1\\1\\1\\1') )
~~~  
  
~~~output
# A tibble: 80 × 2
   fruit_name   long_vowels                     
   <chr>        <chr>                           
 1 apple        aaaaappleeeee                   
 2 apricot      aaaaapriiiiicooooot             
 3 avocado      aaaaavooooocaaaaadooooo         
 4 banana       baaaaanaaaaanaaaaa              
 5 bell pepper  beeeeell peeeeeppeeeeer         
 6 bilberry     biiiiilbeeeeerry                
 7 blackberry   blaaaaackbeeeeerry              
 8 blackcurrant blaaaaackcuuuuurraaaaant        
 9 blood orange blooooooooood oooooraaaaangeeeee
10 blueberry    bluuuuueeeeebeeeeerry           
# ... 70 more rows
…
